{
  "type": "service_account",
  "project_id": "eirsbeta",
  "private_key_id": "70cea28106b1247d3acdae234b04c2e7d3cc13f2",
  "private_key": "-----BEGIN PRIVATE KEY-----\nMIIEuwIBADANBgkqhkiG9w0BAQEFAASCBKUwggShAgEAAoIBAQCoLloNJczRhfHY\np4y+eOzLC6HaQN5rfGO8SRmb9az2YxmiEVwqjZ2UHpVtzDyZJcLJEVlRwU+vh/m4\nBssu+5EW2/DpxKhP4PL/efOOMYuSQyaUt2dL4gK+tqi4u0BwtWzldF2CUw4sNc3H\n6EeQmCXgbVCY+w4vZMPnIYthJj+0c5OO8zmhhPlKekuHau3xRH9hmGsiGiadtnw4\nGt1s2jJfTyx+GXkQ46LeEoZdfKVuh9k43lbjrJ44VrrGF5yfAcXXlnxxGLc4Dtub\nfVYf1Ze+GjC8eukZSzuxAG3tsnrAhv7QHq3XSaXK0g7V5oJV3mzRXcM5Ke0oZwBo\n6N/aJ5cDAgMBAAECgf9YB+sa9q4+/d2ZihohmSpZHb2agFnr6TBLXfgJqo7eaQEB\n1BRqMbZJ0bhlwIH3p8xNcsdOA+Gx/3q22NeBwCwxyu5PbqCrLxQCpdLWmxhzdrK7\nJUTsc2D8cp/eEiWo2U4mzMIldVP10DPmb68GAJ3S22VUrhS+uf/Q+735HAw8Z2lQ\nWQB4b4hVrBMur7f0+XNOjjGllT/HgAIWDuR/494q5Nl90vh42Zb0BNjbKycrzwd/\nnOgs7qIIsR83GkOLcJwOO8588uOoB1RCKGDSrr22r7AjYHTliqSDzzoAtKAkU0xj\nl2KJ6aBVwPT9AA3QIwXPxlDrbIfq0wiAfzUsmQECgYEA2qcjtsgl3z4qe4iuBdgB\n4NHCWhlgTSxFutmwdXY/pHtSF03xvdaVh3JuQjYYG3FROS+EvIHPmGvxVZj2CICa\nJWnxELL3ZZEE2qx4OMxpcgd8dG+BAusEogs1exGkPhdIEcF+rO4oG496ZkNpTmxU\nluq8r7btnntQ2MEVayvD9MECgYEAxOhFWxPCcHT+yoqoFLhp9ee0odd7AN7Qrw4M\n1bQnObiA3vWOA0JKKxSCQntsKdFYoVwuzHVGdpRfXbZBJBOCFATe/2D8TKztX+hb\nx2SAFaw/WzQEObfU2n64Vo/EcIjcpuqJgpKXrCWZ92S4WJFLGsaJ6CcH3U7LvfUk\nP9EmKMMCgYBAd8VM8ChScSbfc4YzzOOI4O/X1uGQ/3uzwtmHWI0dNwsWOfIL0ggW\nfoPJ298xwDB9lughGHkX7MOkRExOZ3SLkXf1P384IBD5VJ7ByGtSpqhoQDQeoyKj\nkIB9P89YS08BhTaPUEzdC2nAWyHicIhkUuO9P0dCUgOdVRi2l5nYQQKBgCcUbkdw\nOYP2RGdQc6GBJE6QyRHh4WC/2C0WHcgANFTJYJJfq+rLqkq4jE3DjykRioSj9gnQ\nMMbyFadUt8MAOC3e9Z870XcqTwZc6HI/aQhkIkLopPoLmSwwQEe1yugG0bwzCk2m\n6IFbCR7Hl6rEU2KiCtbPgEkVDWzLDYG48djfAoGBANCYOndPqQ0UV39TBUzPcU/w\npXnKqS2PhVWyTw1vFYEPlHu5hgRoIblsSgFgstP2TVcDrPG+Buu7EgpnQy74atbp\ndLwl4d80sP1fnY1/SJlA6HMZeCvwAsWYEr2D4C99JKHvztEJ1Dq1XpEy4ykKEWDp\nhJ/8vmiSzaxfhq/0N806\n-----END PRIVATE KEY-----\n",
  "client_email": "eirsbeta@appspot.gserviceaccount.com",
  "client_id": "108165080691971996666",
  "auth_uri": "https://accounts.google.com/o/oauth2/auth",
  "token_uri": "https://oauth2.googleapis.com/token",
  "auth_provider_x509_cert_url": "https://www.googleapis.com/oauth2/v1/certs",
  "client_x509_cert_url": "https://www.googleapis.com/robot/v1/metadata/x509/eirsbeta%40appspot.gserviceaccount.com"
}
